Data Programming
…
missing<-!complete.cases(dfgame)
dfgame[missing,]

 [1] Rank         Name         Platform     Year         Genre       
 [6] Publisher    NA_Sales     EU_Sales     JP_Sales     Other_Sales 
[11] Global_Sales
<0 rows> (or 0-length row.names)

library(tibble)
df_tibble <- as_tibble(dfgame)
df_tibble

# A tibble: 16,598 × 11
    Rank Name          Platform Year  Genre Publisher NA_Sales EU_Sales JP_Sales
   <int> <chr>         <chr>    <chr> <chr> <chr>        <dbl>    <dbl>    <dbl>
 1     1 Wii Sports    Wii      2006  Spor… Nintendo      41.5    29.0      3.77
 2     2 Super Mario … NES      1985  Plat… Nintendo      29.1     3.58     6.81
 3     3 Mario Kart W… Wii      2008  Raci… Nintendo      15.8    12.9      3.79
 4     4 Wii Sports R… Wii      2009  Spor… Nintendo      15.8    11.0      3.28
 5     5 Pokemon Red/… GB       1996  Role… Nintendo      11.3     8.89    10.2 
 6     6 Tetris        GB       1989  Puzz… Nintendo      23.2     2.26     4.22
 7     7 New Super Ma… DS       2006  Plat… Nintendo      11.4     9.23     6.5 
 8     8 Wii Play      Wii      2006  Misc  Nintendo      14.0     9.2      2.93
 9     9 New Super Ma… Wii      2009  Plat… Nintendo      14.6     7.06     4.7 
10    10 Duck Hunt     NES      1984  Shoo… Nintendo      26.9     0.63     0.28
# ℹ 16,588 more rows
# ℹ 2 more variables: Other_Sales <dbl>, Global_Sales <dbl>
…
Total global sales by platform

platforms <- dfgame %>%
  group_by(Platform) %>%
  summarise(Total_Global_Sales = sum(Global_Sales))
platforms

# A tibble: 31 × 2
   Platform Total_Global_Sales
   <chr>                 <dbl>
 1 2600                  97.1 
 2 3DO                    0.1 
 3 3DS                  247.  
 4 DC                    16.0 
 5 DS                   822.  
 6 GB                   255.  
 7 GBA                  318.  
 8 GC                   199.  
 9 GEN                   28.4 
10 GG                     0.04
# ℹ 21 more rows
…
